{
    "root": "D:/xai-rp",
    "program": "<python with no main file>",
    "git": {
        "remote": "git@gitlab.com:lego-project-group/xai-rp.git",
        "commit": "99111b7b9c921ab5c08d70e58e07aa298cd0b786"
    },
    "email": "cian_david@outlook.com",
    "startedAt": "2020-06-20T00:59:59.149311",
    "host": "DESKTOP-LK66GAG",
    "username": "cian_",
    "executable": "D:\\Anaconda\\envs\\xai-rp\\python.exe",
    "os": "Windows-10-10.0.18362-SP0",
    "python": "3.7.7",
    "cpu_count": 12,
    "args": [
        "-f",
        "C:\\Users\\cian_\\AppData\\Roaming\\jupyter\\runtime\\kernel-df49c5fe-9f19-4d58-b4df-5445de44fc84.json"
    ],
    "state": "running",
    "jobType": null,
    "mode": "run",
    "name": "rose-fire-9",
    "project": "xai-research-project",
    "heartbeatAt": "2020-06-20T01:10:28.661318"
}
