{"system.network.sent":14698,"system.network.recv":72666,"system.disk":75.8,"_wandb":true,"_runtime":9,"system.proc.memory.rssMB":276.85,"system.proc.memory.availableMB":6860.97,"system.cpu":4.38,"system.proc.cpu.threads":19.8,"system.memory":57.76,"system.proc.memory.percent":1.7,"_timestamp":1592586148}
{"system.network.sent":10076,"system.network.recv":77646,"system.disk":75.8,"_wandb":true,"_runtime":11,"system.proc.memory.rssMB":283.39,"system.proc.memory.availableMB":6913.17,"system.cpu":8.3,"system.proc.cpu.threads":22.33,"system.memory":57.4,"system.proc.memory.percent":1.74,"_timestamp":1592586153}
{"system.network.sent":13095,"system.network.recv":70435,"system.disk":75.8,"_wandb":true,"_runtime":13,"system.proc.memory.rssMB":283.59,"system.proc.memory.availableMB":6830.77,"system.cpu":8.87,"system.proc.cpu.threads":20.33,"system.memory":57.97,"system.proc.memory.percent":1.75,"_timestamp":1592586162}
{"system.network.sent":3139292,"system.network.recv":226016,"system.disk":75.8,"_wandb":true,"_runtime":19,"system.proc.memory.rssMB":296.88,"system.proc.memory.availableMB":6866.51,"system.cpu":9.24,"system.proc.cpu.threads":21.4,"system.memory":57.74,"system.proc.memory.percent":1.83,"_timestamp":1592586183}
{"system.network.sent":16976,"system.network.recv":79104,"system.disk":75.8,"_wandb":true,"_runtime":21,"system.proc.memory.rssMB":920.61,"system.proc.memory.availableMB":6214.79,"system.cpu":8.23,"system.proc.cpu.threads":57.33,"system.memory":61.77,"system.proc.memory.percent":5.67,"_timestamp":1592586224}
{"system.network.sent":17191,"system.network.recv":79242,"system.disk":75.8,"_wandb":true,"_runtime":23,"system.proc.memory.rssMB":923.83,"system.proc.memory.availableMB":6196.98,"system.cpu":9.37,"system.proc.cpu.threads":57.33,"system.memory":61.83,"system.proc.memory.percent":5.69,"_timestamp":1592586240}
{"system.network.sent":133879,"system.network.recv":106689,"system.disk":75.8,"_wandb":true,"_runtime":31,"system.proc.memory.rssMB":3592.56,"system.proc.memory.availableMB":8270.31,"system.cpu":5.48,"system.proc.cpu.threads":77.6,"system.memory":49.08,"system.proc.memory.percent":22.12,"_timestamp":1592589538}
{"system.cpu": 9.58, "system.memory": 49.52, "system.disk": 75.8, "system.proc.memory.availableMB": 8198.28, "system.proc.memory.rssMB": 1223.74, "system.proc.memory.percent": 7.53, "system.proc.cpu.threads": 83.13, "system.network.sent": 7967505, "system.network.recv": 456493, "_wandb": true, "_timestamp": 1592589586, "_runtime": 80}
{"system.cpu": 9.89, "system.memory": 49.57, "system.disk": 75.8, "system.proc.memory.availableMB": 8193.21, "system.proc.memory.rssMB": 350.52, "system.proc.memory.percent": 2.16, "system.proc.cpu.threads": 84.07, "system.network.sent": 8018574, "system.network.recv": 545013, "_wandb": true, "_timestamp": 1592589617, "_runtime": 110}
{"system.cpu": 10.99, "system.memory": 49.57, "system.disk": 75.8, "system.proc.memory.availableMB": 8189.88, "system.proc.memory.rssMB": 352.38, "system.proc.memory.percent": 2.17, "system.proc.cpu.threads": 84.0, "system.network.sent": 8042765, "system.network.recv": 579835, "_wandb": true, "_timestamp": 1592589647, "_runtime": 141}
{"system.cpu": 10.01, "system.memory": 49.62, "system.disk": 75.8, "system.proc.memory.availableMB": 8183.51, "system.proc.memory.rssMB": 350.61, "system.proc.memory.percent": 2.16, "system.proc.cpu.threads": 84.0, "system.network.sent": 8073252, "system.network.recv": 623125, "_wandb": true, "_timestamp": 1592589678, "_runtime": 171}
{"system.cpu": 9.71, "system.memory": 49.57, "system.disk": 75.8, "system.proc.memory.availableMB": 8189.23, "system.proc.memory.rssMB": 348.64, "system.proc.memory.percent": 2.15, "system.proc.cpu.threads": 84.0, "system.network.sent": 8100992, "system.network.recv": 661782, "_wandb": true, "_timestamp": 1592589708, "_runtime": 202}
{"system.cpu": 10.03, "system.memory": 49.75, "system.disk": 75.8, "system.proc.memory.availableMB": 8160.65, "system.proc.memory.rssMB": 365.8, "system.proc.memory.percent": 2.25, "system.proc.cpu.threads": 84.0, "system.network.sent": 8130549, "system.network.recv": 701468, "_wandb": true, "_timestamp": 1592589739, "_runtime": 233}
{"system.cpu": 10.01, "system.memory": 49.71, "system.disk": 75.8, "system.proc.memory.availableMB": 8168.87, "system.proc.memory.rssMB": 358.81, "system.proc.memory.percent": 2.21, "system.proc.cpu.threads": 84.0, "system.network.sent": 8156923, "system.network.recv": 737421, "_wandb": true, "_timestamp": 1592589769, "_runtime": 263}
{"system.cpu": 10.59, "system.memory": 49.79, "system.disk": 75.8, "system.proc.memory.availableMB": 8155.77, "system.proc.memory.rssMB": 358.93, "system.proc.memory.percent": 2.21, "system.proc.cpu.threads": 84.0, "system.network.sent": 8187625, "system.network.recv": 778249, "_wandb": true, "_timestamp": 1592589800, "_runtime": 294}
{"system.cpu": 18.53, "system.memory": 50.35, "system.disk": 75.8, "system.proc.memory.availableMB": 8065.45, "system.proc.memory.rssMB": 353.64, "system.proc.memory.percent": 2.18, "system.proc.cpu.threads": 84.0, "system.network.sent": 8252375, "system.network.recv": 867825, "_wandb": true, "_timestamp": 1592589831, "_runtime": 324}
{"system.cpu": 9.91, "system.memory": 50.36, "system.disk": 75.8, "system.proc.memory.availableMB": 8064.75, "system.proc.memory.rssMB": 353.19, "system.proc.memory.percent": 2.17, "system.proc.cpu.threads": 84.0, "system.network.sent": 8277264, "system.network.recv": 899992, "_wandb": true, "_timestamp": 1592589861, "_runtime": 355}
{"system.cpu": 9.69, "system.memory": 50.38, "system.disk": 75.8, "system.proc.memory.availableMB": 8060.92, "system.proc.memory.rssMB": 358.98, "system.proc.memory.percent": 2.21, "system.proc.cpu.threads": 83.87, "system.network.sent": 8302806, "system.network.recv": 935006, "_wandb": true, "_timestamp": 1592589892, "_runtime": 385}
{"system.cpu": 9.97, "system.memory": 50.31, "system.disk": 75.8, "system.proc.memory.availableMB": 8070.34, "system.proc.memory.rssMB": 346.35, "system.proc.memory.percent": 2.13, "system.proc.cpu.threads": 83.0, "system.network.sent": 8332838, "system.network.recv": 985604, "_wandb": true, "_timestamp": 1592589922, "_runtime": 416}
{"system.cpu": 12.24, "system.memory": 48.99, "system.disk": 75.8, "system.proc.memory.availableMB": 8287.96, "system.proc.memory.rssMB": 354.33, "system.proc.memory.percent": 2.18, "system.proc.cpu.threads": 83.0, "system.network.sent": 8376755, "system.network.recv": 1042431, "_wandb": true, "_timestamp": 1592589953, "_runtime": 446}
{"system.cpu": 13.51, "system.memory": 46.29, "system.disk": 75.8, "system.proc.memory.availableMB": 8724.67, "system.proc.memory.rssMB": 338.47, "system.proc.memory.percent": 2.08, "system.proc.cpu.threads": 83.0, "system.network.sent": 8405122, "system.network.recv": 1088691, "_wandb": true, "_timestamp": 1592589994, "_runtime": 488}
{"system.cpu": 9.74, "system.memory": 46.33, "system.disk": 75.8, "system.proc.memory.availableMB": 8717.52, "system.proc.memory.rssMB": 346.3, "system.proc.memory.percent": 2.13, "system.proc.cpu.threads": 83.0, "system.network.sent": 8431718, "system.network.recv": 1126627, "_wandb": true, "_timestamp": 1592590025, "_runtime": 518}
{"system.cpu": 9.93, "system.memory": 46.38, "system.disk": 75.8, "system.proc.memory.availableMB": 8709.7, "system.proc.memory.rssMB": 349.45, "system.proc.memory.percent": 2.15, "system.proc.cpu.threads": 83.0, "system.network.sent": 8453863, "system.network.recv": 1158144, "_wandb": true, "_timestamp": 1592590055, "_runtime": 549}
{"system.cpu": 12.23, "system.memory": 46.71, "system.disk": 75.8, "system.proc.memory.availableMB": 8655.36, "system.proc.memory.rssMB": 339.11, "system.proc.memory.percent": 2.09, "system.proc.cpu.threads": 83.0, "system.network.sent": 8505300, "system.network.recv": 1246550, "_wandb": true, "_timestamp": 1592590086, "_runtime": 579}
{"system.cpu": 10.14, "system.memory": 46.71, "system.disk": 75.8, "system.proc.memory.availableMB": 8657.11, "system.proc.memory.rssMB": 344.93, "system.proc.memory.percent": 2.12, "system.proc.cpu.threads": 83.0, "system.network.sent": 8545013, "system.network.recv": 1286925, "_wandb": true, "_timestamp": 1592590116, "_runtime": 610}
{"system.cpu": 9.99, "system.memory": 46.72, "system.disk": 75.8, "system.proc.memory.availableMB": 8655.63, "system.proc.memory.rssMB": 343.73, "system.proc.memory.percent": 2.12, "system.proc.cpu.threads": 83.0, "system.network.sent": 8574924, "system.network.recv": 1329982, "_wandb": true, "_timestamp": 1592590147, "_runtime": 641}
{"system.cpu": 10.05, "system.memory": 46.65, "system.disk": 75.8, "system.proc.memory.availableMB": 8663.99, "system.proc.memory.rssMB": 352.6, "system.proc.memory.percent": 2.17, "system.proc.cpu.threads": 83.0, "system.network.sent": 8610682, "system.network.recv": 1380476, "_wandb": true, "_timestamp": 1592590177, "_runtime": 671}
{"system.cpu": 10.07, "system.memory": 46.78, "system.disk": 75.8, "system.proc.memory.availableMB": 8647.74, "system.proc.memory.rssMB": 343.56, "system.proc.memory.percent": 2.12, "system.proc.cpu.threads": 83.0, "system.network.sent": 8733800, "system.network.recv": 1557178, "_wandb": true, "_timestamp": 1592590208, "_runtime": 702}
{"system.cpu": 11.08, "system.memory": 46.95, "system.disk": 75.8, "system.proc.memory.availableMB": 8620.68, "system.proc.memory.rssMB": 346.86, "system.proc.memory.percent": 2.14, "system.proc.cpu.threads": 83.0, "system.network.sent": 8794376, "system.network.recv": 1731324, "_wandb": true, "_timestamp": 1592590239, "_runtime": 732}
{"system.cpu": 10.01, "system.memory": 46.93, "system.disk": 75.8, "system.proc.memory.availableMB": 8621.46, "system.proc.memory.rssMB": 351.39, "system.proc.memory.percent": 2.16, "system.proc.cpu.threads": 82.93, "system.network.sent": 8822873, "system.network.recv": 1770604, "_wandb": true, "_timestamp": 1592590269, "_runtime": 763}
{"system.cpu": 9.85, "system.memory": 46.88, "system.disk": 75.8, "system.proc.memory.availableMB": 8627.23, "system.proc.memory.rssMB": 339.6, "system.proc.memory.percent": 2.09, "system.proc.cpu.threads": 82.73, "system.network.sent": 8850148, "system.network.recv": 1804624, "_wandb": true, "_timestamp": 1592590300, "_runtime": 793}
{"system.cpu": 9.93, "system.memory": 46.89, "system.disk": 75.8, "system.proc.memory.availableMB": 8627.01, "system.proc.memory.rssMB": 350.52, "system.proc.memory.percent": 2.16, "system.proc.cpu.threads": 83.0, "system.network.sent": 8879578, "system.network.recv": 1850641, "_wandb": true, "_timestamp": 1592590330, "_runtime": 824}
{"system.cpu": 9.93, "system.memory": 46.85, "system.disk": 75.8, "system.proc.memory.availableMB": 8632.65, "system.proc.memory.rssMB": 352.8, "system.proc.memory.percent": 2.17, "system.proc.cpu.threads": 83.0, "system.network.sent": 8907473, "system.network.recv": 1886033, "_wandb": true, "_timestamp": 1592590361, "_runtime": 854}
{"system.cpu": 9.86, "system.memory": 46.73, "system.disk": 75.8, "system.proc.memory.availableMB": 8654.04, "system.proc.memory.rssMB": 340.14, "system.proc.memory.percent": 2.09, "system.proc.cpu.threads": 83.0, "system.network.sent": 8932186, "system.network.recv": 1915858, "_wandb": true, "_timestamp": 1592590391, "_runtime": 885}
{"system.cpu": 9.95, "system.memory": 46.69, "system.disk": 75.8, "system.proc.memory.availableMB": 8657.72, "system.proc.memory.rssMB": 335.9, "system.proc.memory.percent": 2.07, "system.proc.cpu.threads": 83.0, "system.network.sent": 8958327, "system.network.recv": 1948990, "_wandb": true, "_timestamp": 1592590422, "_runtime": 915}
{"system.cpu": 9.97, "system.memory": 46.69, "system.disk": 75.8, "system.proc.memory.availableMB": 8658.42, "system.proc.memory.rssMB": 338.22, "system.proc.memory.percent": 2.08, "system.proc.cpu.threads": 83.0, "system.network.sent": 8996946, "system.network.recv": 2022429, "_wandb": true, "_timestamp": 1592590452, "_runtime": 946}
{"system.cpu": 9.79, "system.memory": 46.85, "system.disk": 75.8, "system.proc.memory.availableMB": 8633.88, "system.proc.memory.rssMB": 340.78, "system.proc.memory.percent": 2.1, "system.proc.cpu.threads": 83.0, "system.network.sent": 9234911, "system.network.recv": 2506788, "_wandb": true, "_timestamp": 1592590483, "_runtime": 976}
{"system.cpu": 10.39, "system.memory": 47.06, "system.disk": 75.8, "system.proc.memory.availableMB": 8598.69, "system.proc.memory.rssMB": 350.12, "system.proc.memory.percent": 2.16, "system.proc.cpu.threads": 83.0, "system.network.sent": 9399650, "system.network.recv": 3078530, "_wandb": true, "_timestamp": 1592590513, "_runtime": 1007}
{"system.cpu": 12.96, "system.memory": 46.9, "system.disk": 75.8, "system.proc.memory.availableMB": 8625.2, "system.proc.memory.rssMB": 345.65, "system.proc.memory.percent": 2.13, "system.proc.cpu.threads": 83.0, "system.network.sent": 9484975, "system.network.recv": 3348717, "_wandb": true, "_timestamp": 1592590544, "_runtime": 1038}
{"system.cpu": 11.04, "system.memory": 46.89, "system.disk": 75.8, "system.proc.memory.availableMB": 8623.97, "system.proc.memory.rssMB": 343.42, "system.proc.memory.percent": 2.11, "system.proc.cpu.threads": 83.0, "system.network.sent": 9554409, "system.network.recv": 3710333, "_wandb": true, "_timestamp": 1592590574, "_runtime": 1068}
{"system.cpu": 11.71, "system.memory": 46.81, "system.disk": 75.8, "system.proc.memory.availableMB": 8637.14, "system.proc.memory.rssMB": 351.09, "system.proc.memory.percent": 2.16, "system.proc.cpu.threads": 83.0, "system.network.sent": 9723184, "system.network.recv": 4052270, "_wandb": true, "_timestamp": 1592590605, "_runtime": 1099}
{"system.cpu": 12.18, "system.memory": 46.86, "system.disk": 75.8, "system.proc.memory.availableMB": 8628.55, "system.proc.memory.rssMB": 343.23, "system.proc.memory.percent": 2.11, "system.proc.cpu.threads": 83.0, "system.network.sent": 9879869, "system.network.recv": 4352906, "_wandb": true, "_timestamp": 1592590636, "_runtime": 1129}
{"system.cpu": 11.15, "system.memory": 47.08, "system.disk": 75.8, "system.proc.memory.availableMB": 8598.13, "system.proc.memory.rssMB": 354.68, "system.proc.memory.percent": 2.18, "system.proc.cpu.threads": 83.0, "system.network.sent": 9913384, "system.network.recv": 4390858, "_wandb": true, "_timestamp": 1592590666, "_runtime": 1160}
{"system.cpu": 9.97, "system.memory": 46.92, "system.disk": 75.8, "system.proc.memory.availableMB": 8623.25, "system.proc.memory.rssMB": 350.09, "system.proc.memory.percent": 2.16, "system.proc.cpu.threads": 83.0, "system.network.sent": 9937948, "system.network.recv": 4423795, "_wandb": true, "_timestamp": 1592590697, "_runtime": 1190}
{"system.cpu": 10.55, "system.memory": 46.92, "system.disk": 75.8, "system.proc.memory.availableMB": 8621.7, "system.proc.memory.rssMB": 344.42, "system.proc.memory.percent": 2.12, "system.proc.cpu.threads": 83.0, "system.network.sent": 9990363, "system.network.recv": 4507535, "_wandb": true, "_timestamp": 1592590727, "_runtime": 1221}
{"system.cpu": 10.07, "system.memory": 46.89, "system.disk": 75.8, "system.proc.memory.availableMB": 8625.73, "system.proc.memory.rssMB": 343.71, "system.proc.memory.percent": 2.12, "system.proc.cpu.threads": 83.0, "system.network.sent": 10013600, "system.network.recv": 4538199, "_wandb": true, "_timestamp": 1592590758, "_runtime": 1251}
{"system.cpu": 9.91, "system.memory": 46.87, "system.disk": 75.8, "system.proc.memory.availableMB": 8627.73, "system.proc.memory.rssMB": 339.81, "system.proc.memory.percent": 2.09, "system.proc.cpu.threads": 83.0, "system.network.sent": 10044660, "system.network.recv": 4584715, "_wandb": true, "_timestamp": 1592590788, "_runtime": 1282}
{"system.cpu": 9.88, "system.memory": 46.96, "system.disk": 75.8, "system.proc.memory.availableMB": 8616.97, "system.proc.memory.rssMB": 357.06, "system.proc.memory.percent": 2.2, "system.proc.cpu.threads": 83.0, "system.network.sent": 10086579, "system.network.recv": 4633627, "_wandb": true, "_timestamp": 1592590819, "_runtime": 1312}
{"system.cpu": 11.49, "system.memory": 46.85, "system.disk": 75.8, "system.proc.memory.availableMB": 8630.14, "system.proc.memory.rssMB": 344.54, "system.proc.memory.percent": 2.12, "system.proc.cpu.threads": 83.0, "system.network.sent": 10120238, "system.network.recv": 4684431, "_wandb": true, "_timestamp": 1592590849, "_runtime": 1343}
{"system.cpu": 9.0, "system.memory": 46.83, "system.disk": 75.8, "system.proc.memory.availableMB": 8635.99, "system.proc.memory.rssMB": 335.39, "system.proc.memory.percent": 2.06, "system.proc.cpu.threads": 82.0, "system.network.sent": 10128352, "system.network.recv": 4698858, "_wandb": true, "_timestamp": 1592590854, "_runtime": 2641}
